…
    detach("package:import", unload = TRUE)

Rodeo Dataset
=============

    # Save data set to rodeo folder
    saveRDS(d, here("data/rodeo/rodeo-data-rn.rds"))

    # Load data set
    readRDS(file = here("data/rodeo/rodeo-data-rn.rds"))

    ## # A tibble: 58,557 x 82
    ##    tractid cbsa  cbsaname mhv.00 mhv.10 mhv.change mhv.growth hinc00  hu00 own00
    ##    <chr>   <chr> <chr>     <dbl>  <dbl>      <dbl>      <dbl>  <dbl> <dbl> <dbl>
    ##  1 fips-0~ 33860 Montgom~ 9.87e4 121500     22797.       23.1 47270.  769.  518.
    ##  2 fips-0~ 33860 Montgom~ 9.39e4 130500     36565.       38.9 39040.  731   452 
    ##  3 fips-0~ 33860 Montgom~ 1.03e5 118700     15745.       15.3 60215. 1263   869 
    ##  4 fips-0~ 33860 Montgom~ 1.16e5 133500     17788.       15.4 59456. 1871  1390 
    ##  5 fips-0~ 33860 Montgom~ 1.50e5 174500     24263.       16.2 75878. 2282. 1671.
    ##  6 fips-0~ 33860 Montgom~ 9.07e4 129600     38886.       42.9 43423. 1310.  961.
    ##  7 fips-0~ 33860 Montgom~ 7.00e4 104200     34232.       48.9 47630. 1348   847 
    ##  8 fips-0~ 33860 Montgom~ 1.23e5 292800    169518.      138.  57696.  733.  583.
    ##  9 fips-0~ 33860 Montgom~ 1.25e5 152500     27382.       21.9 58550. 2939. 2350.
    ## 10 fips-0~ 33860 Montgom~ 8.12e4  95900     14721.       18.1 49663. 1865. 1475.
    ## # ... with 58,547 more rows, and 72 more variables: rent00 <dbl>, hinc12 <dbl>,
    ## #   hu10 <dbl>, own10 <dbl>, rent10 <dbl>, empclf00 <dbl>, clf00 <dbl>,
    ## #   unemp00 <dbl>, prof00 <dbl>, empclf12 <dbl>, clf12 <dbl>, unemp12 <dbl>,
    ## #   prof12 <dbl>, dpov00 <dbl>, npov00 <dbl>, dpov12 <dbl>, npov12 <dbl>,
    ## #   ag25up00 <dbl>, hs00 <dbl>, col00 <dbl>, ag25up12 <dbl>, hs12 <dbl>,
    ## #   col12 <dbl>, pop00.x <dbl>, nhwht00 <dbl>, nhblk00 <dbl>, hisp00 <dbl>,
    ## #   asian00 <dbl>, pop10 <dbl>, nhwht10 <dbl>, nhblk10 <dbl>, hisp10 <dbl>, ...
…
